HW2/Lab0/marquee.vcd
$date
	Sun Apr  6 19:31:56 2014
$end
$version
	Icarus Verilog
$end
$timescale
	10ps
$end
$scope module PATTERN $end
$scope module u_marquee $end
$var wire 1 ! clk $end
$var wire 3 " indataA [2:0] $end
$var wire 3 # indataB [2:0] $end
$var wire 1 $ rst $end
$var reg 2 % counter_r [1:0] $end
$var reg 6 & outdata [5:0] $end
$upscope $end
$upscope $end
$enddefinitions $end
#0
$dumpvars
bx &
bx %
0$
b0 #
b0 "
0!
$end
#250
1!
#500
1$
0!
#750
b0 &
b0 %
1!
#1000
0$
0!
#1250
b1 %
b101 &
b1 #
b100 "
1!
#1500
0!
#1750
b10 %
b0 &
1!
#2000
0!
#2250
b11 %
b10 &
b11 #
b1 "
1!
#2500
0!
#2750
b0 %
b101101 &
b101 #
b101 "
1!
#3000
0!
#3250
b1 %
b111 &
b10 #
1!
#3500
0!
#3750
b10 %
b1 &
b101 #
b1 "
1!
#4000
0!
#4250
b11 %
b11 &
b110 "
1!
#4500
0!
#4750
b0 %
b101100 &
b100 #
b101 "
1!
#5000
0!
#5250
b1 %
b111 &
b110 #
b1 "
1!
#5500
0!
#5750
b10 %
b0 &
b10 #
b101 "
1!
#6000
0!
#6250
b11 %
b10 &
b111 #
1!
#6500
0!
#6750
b0 %
b10111 &
b10 "
1!
#7000
0!
#7250
b1 %
b110 &
b110 #
1!
#7500
0!
#7750
b10 %
b0 &
b101 #
b0 "
1!
#8000
0!
#8250
b11 %
b1 &
b100 "
1!
#8500
0!
#8750
b0 %
b101101 &
b101 "
1!
#9000
0!
#9250
b1 %
b11 &
b10 #
b11 "
1!
#9500
0!
#9750
b10 %
b0 &
b0 #
b0 "
1!
#10000
0!
#10250
b11 %
b111 &
b101 #
b10 "
1!
#10500
0!
#10750
b0 %
b110011 &
b11 #
b110 "
1!
#11000
0!
#11250
b1 %
b111 &
b101 "
1!
#11500
0!
#11750
b10 %
b1 &
b101 #
b11 "
1!
#12000
0!
#12250
b11 %
b100 &
b110 #
b10 "
1!
#12500
0!
#12750
b0 %
b101111 &
b111 #
b101 "
1!
#13000
0!
#13250
b1 %
b11 &
b10 #
b11 "
1!
#13500
0!
#13750
b10 %
b0 &
b100 #
b10 "
1!
#14000
0!
#14250
b11 %
b10 #
1!
#14500
0!
#14750
b0 %
b1000 &
b0 #
b1 "
1!
#15000
0!
#15250
b1 %
b1 &
b1 #
b0 "
1!
#15500
0!
#15750
b10 %
b10 &
b110 #
b11 "
1!
#16000
0!
#16250
b11 %
b0 &
b110 "
1!
#16500
0!
#16750
b0 %
b100010 &
b10 #
b100 "
1!
#17000
0!
#17250
b1 %
b11 &
b1 #
b11 "
1!
#17500
0!
#17750
b10 %
b101 &
b111 #
b101 "
1!
#18000
0!
#18250
b11 %
b1 &
b10 #
b11 "
1!
#18500
0!
#18750
b0 %
b110101 &
b101 #
b110 "
1!
#19000
0!
#19250
b1 %
b1 &
b1 #
b1 "
1!
#19500
0!
#19750
b10 %
b0 &
b100 #
b10 "
1!
#20000
0!
#20250
b11 %
b111 #
b111 "
1!
#20500
0!
#20750
b0 %
b111 &
b0 "
1!
#21000
0!
#21250
b1 %
b100 #
b111 "
1!
#21500
0!
#21750
b10 %
b1 &
b1 #
b11 "
1!
#22000
0!
#22250
b11 %
b0 #
b1 "
1!
#22500
0!
#22750
b0 %
b111001 &
b1 #
b111 "
1!
#23000
0!
#23250
b1 %
b110 &
b100 #
b110 "
1!
#23500
0!
#23750
b10 %
b0 &
b0 #
b10 "
1!
#24000
0!
#24250
b11 %
b10 &
b101 #
b111 "
1!
#24500
0!
#24750
b0 %
b10110 &
b110 #
b10 "
1!
#25000
0!
#25250
b1 %
b101 &
b1 #
b101 "
1!
#25500
0!
#25750
b10 %
b11 &
b11 #
b111 "
1!
#26000
0!
#26250
b11 %
b101 &
b0 #
b101 "
1!
#26500
0!
#26750
b0 %
b11001 &
b1 #
b11 "
1!
#27000
0!
#27250
b1 %
b111 &
b10 #
b111 "
1!
#27500
0!
#27750
b10 %
b0 &
b110 #
b0 "
1!
#28000
0!
#28250
b11 %
b10 &
b100 #
b110 "
1!
#28500
0!
#28750
b0 %
b10110 &
b110 #
b10 "
1!
#29000
0!
#29250
b1 %
b11 &
b11 #
b11 "
1!
#29500
0!
#29750
b10 %
b111 "
1!
#30000
0!
#30250
b11 %
b100 #
1!
#30500
0!
#30750
b0 %
b111011 &
b11 #
1!
#31000
0!
#31250
b1 %
b110 &
b10 #
b110 "
1!
#31500
0!
#31750
b10 %
b1 &
b101 #
b1 "
1!
#32000
0!
#32250
b11 %
b111 &
b10 "
1!
#32500
0!
#32750
b0 %
b101111 &
b111 #
b101 "
1!
#33000
0!
#33250
b1 %
b101 &
b100 #
b1 "
1!
#33500
0!
#33750
b10 %
b0 &
b10 #
b0 "
1!
#34000
0!
#34250
b11 %
b101 &
b110 #
b11 "
1!
#34500
0!
#34750
b0 %
b100010 &
b10 #
b100 "
1!
#35000
0!
#35250
b1 %
b111 &
b11 #
b101 "
1!
#35500
0!
#35750
b10 %
b110 &
b110 #
b110 "
1!
#36000
0!
#36250
b11 %
b101 &
b10 #
b111 "
1!
#36500
0!
#36750
b0 %
b110000 &
b0 #
b110 "
1!
#37000
0!
#37250
b1 %
b1 &
b1 "
1!
#37500
0!
#37750
b10 %
b0 &
b11 #
b100 "
1!
#38000
0!
#38250
b11 %
b101 &
b1 #
1!
#38500
0!
#38750
b0 %
b11101 &
b101 #
b11 "
1!
#39000
0!
#39250
b1 %
b101 &
b1 "
1!
#39500
0!
#39750
b10 %
b10 &
b10 #
b110 "
1!
#40000
0!
#40250
b11 %
b11 &
b101 #
1!
#40500
0!
#40750
b0 %
b110100 &
b100 #
1!
#41000
0!
#41250
b1 %
b111 &
b1 #
b111 "
1!
#41500
0!
#41750
b10 %
b0 &
b0 #
b100 "
1!
#42000
0!
#42250
b11 %
b101 &
b101 #
b0 "
1!
#42500
0!
#42750
b0 %
b111110 &
b110 #
b111 "
1!
#43000
0!
#43250
b1 %
b100 &
b100 #
b0 "
1!
#43500
0!
#43750
b10 %
b1 &
b1 #
b101 "
1!
#44000
0!
#44250
b11 %
b10 &
b110 #
b100 "
1!
#44500
0!
#44750
b0 %
b10101 &
b101 #
b10 "
1!
#45000
0!
#45250
b1 %
b110 &
b0 #
b110 "
1!
#45500
0!
#45750
b10 %
b10 &
b10 #
b11 "
1!
#46000
0!
#46250
b11 %
b100 &
b110 "
1!
#46500
0!
#46750
b0 %
b101010 &
b101 "
1!
#47000
0!
#47250
b1 %
b111 &
b111 #
b1 "
1!
#47500
0!
#47750
b10 %
b0 &
b0 #
b110 "
1!
#48000
0!
#48250
b11 %
b110 #
1!
#48500
0!
#48750
b0 %
b101100 &
b100 #
b101 "
1!
#49000
0!
#49250
b1 %
b110 &
b0 #
b110 "
1!
#49500
0!
#49750
b10 %
b10 &
b11 #
1!
#50000
0!
#50250
b11 %
b110 &
b1 #
b111 "
1!
#50500
0!
#50750
b0 %
b10001 &
b10 "
1!
#51000
0!
#51250
b1 %
b111 &
b111 "
1!
#51500
0!
#51750
b10 %
b0 &
b0 #
b110 "
1!
#52000
0!
#52250
b11 %
b101 #
b101 "
1!
#52500
0!
#52750
b0 %
b1001 &
b1 #
b1 "
1!
#53000
0!
#53250
b1 %
b101 &
b0 #
b101 "
1!
#53500
0!
#53750
b10 %
b11 &
b11 #
b11 "
1!
#54000
0!
#54250
b11 %
b110 &
b10 #
b100 "
1!
#54500
0!
#54750
b0 %
b110000 &
b0 #
b110 "
1!
#55000
0!
#55250
b1 %
b1 &
b1 #
b1 "
1!
#55500
0!
#55750
b10 %
b110 &
b110 #
b110 "
1!
#56000
0!
#56250
b11 %
b101 &
b10 #
b111 "
1!
#56500
0!
#56750
b0 %
b10101 &
b101 #
b10 "
1!
#57000
0!
#57250
b1 %
b110 &
b0 #
b110 "
1!
#57500
0!
#57750
b10 %
b0 &
b1 "
1!
#58000
0!
#58250
b11 %
b1 &
b11 #
b10 "
1!
#58500
0!
#58750
b0 %
b11111 &
b111 #
b11 "
1!
#59000
0!
#59250
b1 %
b110 &
b10 #
b110 "
1!
#59500
0!
#59750
b10 %
b0 &
b1 #
b100 "
1!
#60000
0!
#60250
b11 %
b110 &
b100 #
b10 "
1!
#60500
0!
#60750
b0 %
b111110 &
b110 #
b111 "
1!
#61000
0!
#61250
b1 %
b10 &
b10 #
b10 "
1!
#61500
0!
#61750
b10 %
b0 &
b101 #
1!
#62000
0!
#62250
b11 %
b100 #
b100 "
1!
#62500
0!
#62750
b0 %
b10001 &
b1 #
b10 "
1!
#63000
0!
#63250
b1 %
b111 &
b110 #
b1 "
1!
#63500
0!
#63750
b10 %
b11 &
b11 #
b11 "
1!
#64000
0!
#64250
b11 %
b110 &
b1 #
b111 "
1!
#64500
0!
#64750
b0 %
b110101 &
b101 #
b110 "
1!
#65000
0!
#65250
b1 %
b111 &
b11 #
b111 "
1!
#65500
0!
#65750
b10 %
b0 &
b110 #
b0 "
1!
#66000
0!
#66250
b11 %
b1 &
b10 #
b11 "
1!
#66500
0!
#66750
b0 %
b101 &
b101 #
b0 "
1!
#67000
0!
#67250
b1 %
b11 &
b10 #
b11 "
1!
#67500
0!
#67750
b10 %
b100 &
b101 #
b110 "
1!
#68000
0!
#68250
b11 %
b0 #
b100 "
1!
#68500
0!
#68750
b0 %
b1110 &
b110 #
b1 "
1!
#69000
0!
#69250
b1 %
b11 &
b11 #
1!
#69500
0!
#69750
b10 %
b0 &
b0 "
1!
#70000
0!
#70250
b11 %
b101 &
b110 "
1!
#70500
0!
#70750
b0 %
b10100 &
b100 #
b10 "
1!
#71000
0!
#71250
b1 %
b11 &
b0 #
b11 "
1!
#71500
0!
#71750
b10 %
b0 &
b10 "
1!
#72000
0!
#72250
b11 %
b100 &
b101 #
b1 "
1!
#72500
0!
#72750
b0 %
b1011 &
b11 #
1!
#73000
0!
#73250
b1 %
b1 &
b0 #
1!
#73500
0!
#73750
b10 %
b1 #
b111 "
1!
#74000
0!
#74250
b11 %
b11 &
b100 #
1!
#74500
0!
#74750
b0 %
b110 &
b110 #
b0 "
1!
#75000
0!
#75250
b1 %
b10 #
b100 "
1!
#75500
0!
#75750
b10 %
b0 &
b1 #
b110 "
1!
#76000
0!
#76250
b11 %
b101 #
b101 "
1!
#76500
0!
#76750
b0 %
b11101 &
b11 "
1!
#77000
0!
#77250
b1 %
b111 &
b111 #
b101 "
1!
#77500
0!
#77750
b10 %
b100 &
b100 "
1!
#78000
0!
#78250
b11 %
b110 &
b1 #
b111 "
1!
#78500
0!
#78750
b0 %
b1011 &
b11 #
b1 "
1!
#79000
0!
#79250
b1 %
b1 &
b1 #
1!
#79500
0!
#79750
b10 %
b0 &
b10 #
1!
#80000
0!
#80250
b11 %
b111 &
b101 #
b10 "
1!
#80500
0!
#80750
b0 %
b11100 &
b100 #
b11 "
1!
#81000
0!
#81250
b1 %
b110 &
b110 #
b10 "
1!
#81500
0!
#81750
b10 %
b0 &
b111 #
b0 "
1!
#82000
0!
#82250
b11 %
b110 &
b0 #
b110 "
1!
#82500
0!
#82750
b0 %
b0 &
b0 "
1!
#83000
0!
#83250
b1 %
b110 &
b110 #
1!
#83500
0!
#83750
b10 %
b0 &
b0 #
b101 "
1!
#84000
0!
#84250
b11 %
b101 &
b1 #
b100 "
1!
#84500
0!
#84750
b0 %
b100 &
b100 #
b0 "
1!
#85000
0!
#85250
b1 %
b10 &
b10 #
b10 "
1!
#85500
0!
#85750
b10 %
b1 &
b1 #
b101 "
1!
#86000
0!
#86250
b11 %
b100 &
b11 #
b111 "
1!
#86500
0!
#86750
b0 %
b1110 &
b110 #
b1 "
1!
#87000
0!
#87250
b1 %
b101 &
b1 #
b101 "
1!
#87500
0!
#87750
b10 %
b0 &
b10 #
1!
#88000
0!
#88250
b11 %
b11 &
b100 #
b111 "
1!
#88500
0!
#88750
b0 %
b100001 &
b1 #
b100 "
1!
#89000
0!
#89250
b1 %
b111 &
b110 #
b11 "
1!
#89500
0!
#89750
b10 %
b110 &
b111 "
1!
#90000
0!
#90250
b11 %
b1 &
b101 #
b100 "
1!
#90500
0!
#90750
b0 %
b0 &
b0 #
b0 "
1!
#91000
0!
#91250
b1 %
b110 &
b100 #
b10 "
1!
#91500
0!
#91750
b10 %
b101 &
b101 #
b101 "
1!
#92000
0!
#92250
b11 %
b10 &
b1 #
b11 "
1!
#92500
0!
#92750
b0 %
b110101 &
b101 #
b110 "
1!
#93000
0!
#93250
b1 %
b111 &
b111 #
b11 "
1!
#93500
0!
#93750
b10 %
b11 &
b11 #
1!
#94000
0!
#94250
b11 %
b100 &
b1 #
b101 "
1!
#94500
0!
#94750
b0 %
b100101 &
b101 #
b100 "
1!
#95000
0!
#95250
b1 %
b101 &
b0 "
1!
#95500
0!
#95750
b10 %
b0 &
b0 #
b10 "
1!
#96000
0!
#96250
b11 %
b111 &
b10 #
b101 "
1!
#96500
0!
#96750
b0 %
b100110 &
b110 #
b100 "
1!
#97000
0!
#97250
b1 %
b100 &
b0 #
1!
#97500
0!
#97750
b10 %
b10 &
b10 #
b111 "
1!
#98000
0!
#98250
b11 %
b110 &
b100 "
1!
#98500
0!
#98750
b0 %
b100000 &
b0 #
1!
#99000
0!
#99250
b1 %
b11 &
b11 #
b10 "
1!
#99500
0!
#99750
b10 %
b100 &
b101 #
b110 "
1!
#100000
0!
#100250
b11 %
b0 &
b10 #
b10 "
1!
#100500
0!
#100750
b0 %
b1100 &
b100 #
b1 "
1!
#101000
0!
#101250
b1 %
b111 &
b11 #
b101 "
1!
#101500
0!
#101750
b10 %
b100 &
b111 #
b100 "
1!
#102000
0!
#102250
b11 %
b111 &
b1 #
b110 "
1!
#102500
0!
#102750
b0 %
b100000 &
b0 #
b100 "
1!
#103000
0!
#103250
b1 %
b100 &
b100 #
1!
#103500
0!
#103750
b10 %
b10 &
b10 #
b111 "
1!
#104000
0!
#104250
b11 %
b1 &
b0 #
b1 "
1!
#104500
0!
#104750
b0 %
b11011 &
b11 #
b11 "
1!
#105000
0!
#105250
b1 %
b111 &
b100 "
1!
#105500
0!
#105750
b10 %
b0 &
b1 #
1!
#106000
0!
#106250
b11 %
b110 &
b111 #
b1 "
1!
#106500
0!
#106750
b0 %
b100111 &
b100 "
1!
#107000
0!
#107250
b1 %
b101 &
b0 #
b101 "
1!
#107500
0!
#107750
b10 %
b0 &
b1 #
b10 "
1!
#108000
0!
#108250
b11 %
b1 &
b0 #
b1 "
1!
#108500
0!
#108750
b0 %
b100011 &
b11 #
b100 "
1!
#109000
0!
#109250
b1 %
b11 &
b10 #
b11 "
1!
#109500
0!
#109750
b10 %
b0 &
b101 #
b0 "
1!
#110000
0!
#110250
b11 %
b110 &
b100 #
b10 "
1!
#110500
0!
#110750
b0 %
b11001 &
b1 #
b11 "
1!
#111000
0!
#111250
b1 %
b10 &
b10 #
b10 "
1!
#111500
0!
#111750
b10 %
b0 &
b0 #
b1 "
1!
#112000
0!
#112250
b11 %
b1 &
b111 #
b110 "
1!
#112500
0!
#112750
b0 %
b11110 &
b110 #
b11 "
1!
#113000
0!
#113250
b1 %
b11 &
b0 #
1!
#113500
0!
#113750
b10 %
b1 &
b1 #
b111 "
1!
#114000
0!
#114250
b11 %
b101 &
b100 "
1!
#114500
0!
#114750
b0 %
b101111 &
b111 #
b101 "
1!
#115000
0!
#115250
b1 %
b1 &
b1 #
b0 "
1!
#115500
0!
#115750
b10 %
b111 #
b1 "
1!
#116000
0!
#116250
b11 %
b10 &
b0 #
b10 "
1!
#116500
0!
#116750
b0 %
b11100 &
b100 #
b11 "
1!
#117000
0!
#117250
b1 %
b111 &
b111 #
b0 "
1!
#117500
0!
#117750
b10 %
b0 &
b0 #
b110 "
1!
#118000
0!
#118250
b11 %
b10 &
b101 #
b111 "
1!
#118500
0!
#118750
b0 %
b100111 &
b111 #
b100 "
1!
#119000
0!
#119250
b1 %
b111 &
b1 #
b110 "
1!
#119500
0!
#119750
b10 %
b1 &
b11 "
1!
#120000
0!
#120250
b11 %
b11 &
b0 #
1!
#120500
0!
#120750
b0 %
b10101 &
b101 #
b10 "
1!
#121000
0!
#121250
b1 %
b111 &
b111 #
b0 "
1!
#121500
0!
#121750
b10 %
b110 &
b110 "
1!
#122000
0!
#122250
b11 %
b1 &
b0 #
b1 "
1!
#122500
0!
#122750
b0 %
b110111 &
b111 #
b110 "
1!
#123000
0!
#123250
b1 %
b101 &
b101 #
b1 "
1!
#123500
0!
#123750
b10 %
b0 &
b0 #
b110 "
1!
#124000
0!
#124250
b11 %
b101 &
b101 "
1!
#124500
0!
#124750
b0 %
b100001 &
b1 #
b100 "
1!
#125000
0!
#125250
b1 %
b111 &
b111 #
b1 "
1!
#125500
0!
#125750
b10 %
b0 &
b1 #
b110 "
1!
#126000
0!
#126250
b11 %
b101 &
b0 #
b101 "
1!
#126500
0!
#126750
b0 %
b10 &
b10 #
b0 "
1!
#127000
0!
#127250
b1 %
b111 &
b1 #
b111 "
1!
#127500
0!
#127750
b10 %
b100 &
b110 #
b101 "
1!
#128000
0!
#128250
b11 %
b110 &
b100 #
b10 "
1!
#128500
0!
#128750
b0 %
b1111 &
b111 #
b1 "
1!
#129000
0!
#129250
b1 %
b111 &
b11 "
1!
#129500
0!
#129750
b10 %
b0 &
b1 #
b10 "
1!
#130000
0!
#130250
b11 %
b11 #
b11 "
1!
#130500
0!
#130750
b0 %
b101001 &
b1 #
b101 "
1!
#131000
0!
#131250
b1 %
b111 &
b111 "
1!
#131500
0!
#131750
b10 %
b0 &
b10 "
1!
#132000
0!
#132250
b11 %
b110 &
b100 #
1!
#132500
0!
#132750
b0 %
b10101 &
b101 #
1!
#133000
0!
#133250
b1 %
b101 &
b1 "
1!
#133500
0!
#133750
b10 %
b1 &
b1 #
b101 "
1!
#134000
0!
#134250
b11 %
b110 &
b111 #
b1 "
1!
#134500
0!
#134750
b0 %
b11101 &
b101 #
b11 "
1!
#135000
0!
#135250
b1 %
b110 &
b110 #
b0 "
1!
#135500
0!
#135750
b10 %
b0 &
b101 #
b10 "
1!
#136000
0!
#136250
b11 %
b110 &
b100 #
1!
#136500
0!
#136750
b0 %
b11 &
b11 #
b0 "
1!
#137000
0!
#137250
b1 %
b101 &
b0 #
b101 "
1!
#137500
0!
#137750
b10 %
b100 &
b100 #
b110 "
1!
#138000
0!
#138250
b11 %
b10 &
b1 #
b11 "
1!
#138500
0!
#138750
b0 %
b11 &
b11 #
b0 "
1!
#139000
0!
#139250
b1 %
b111 &
b110 "
1!
#139500
0!
#139750
b10 %
b100 &
b110 #
b100 "
1!
#140000
0!
#140250
b11 %
b101 &
b1 #
1!
#140500
0!
#140750
b0 %
b1011 &
b11 #
b1 "
1!
#141000
0!
#141250
b1 %
b101 &
b101 #
b100 "
1!
#141500
0!
#141750
b10 %
b0 &
b1 #
1!
#142000
0!
#142250
b11 %
b111 &
b101 #
b10 "
1!
#142500
0!
#142750
b0 %
b101110 &
b110 #
b101 "
1!
#143000
0!
#143250
b1 %
b10 &
b0 #
b10 "
1!
#143500
0!
#143750
b10 %
b0 &
b101 #
b0 "
1!
#144000
0!
#144250
b11 %
b111 &
b0 #
b111 "
1!
#144500
0!
#144750
b0 %
b101 &
b101 #
b0 "
1!
#145000
0!
#145250
b1 %
b111 &
b11 #
b100 "
1!
#145500
0!
#145750
b10 %
b0 &
b101 #
b0 "
1!
#146000
0!
#146250
b11 %
b101 &
b0 #
b101 "
1!
#146500
0!
#146750
b0 %
b101001 &
b1 #
1!
#147000
0!
#147250
b1 %
b100 &
b0 #
b100 "
1!
#147500
0!
#147750
b10 %
b0 &
b0 "
1!
#148000
0!
#148250
b11 %
b100 &
b101 #
b1 "
1!
#148500
0!
#148750
b0 %
b101101 &
b101 "
1!
#149000
0!
#149250
b1 %
b101 &
b100 #
1!
#149500
0!
#149750
b10 %
b0 &
b10 "
1!
#150000
0!
#150250
b11 %
b110 &
b110 #
b0 "
1!
#150500
0!
#150750
b0 %
b10110 &
b10 "
1!
#151000
0!
#151250
b1 %
b111 &
b11 #
b111 "
1!
#151500
0!
#151750
b10 %
b101 &
b111 #
b101 "
1!
#152000
0!
#152250
b11 %
b110 &
b11 #
1!
#152500
0!
#152750
b0 %
b1110 &
b110 #
b1 "
1!
#153000
0!
#153250
b1 %
b110 &
b0 "
1!
#153500
0!
#153750
b10 %
b0 &
b10 #
1!
#154000
0!
#154250
b11 %
b101 &
b1 #
b100 "
1!
#154500
0!
#154750
b0 %
b11000 &
b0 #
b11 "
1!
#155000
0!
#155250
b1 %
b111 &
b111 "
1!
#155500
0!
#155750
b10 %
b101 &
b101 #
b101 "
1!
#156000
0!
#156250
b11 %
b111 &
b100 #
b11 "
1!
#156500
0!
#156750
b0 %
b100100 &
b100 "
1!
#157000
0!
#157250
b1 %
b101 &
b101 #
b1 "
1!
#157500
0!
#157750
b10 %
b10 &
b11 #
b110 "
1!
#158000
0!
#158250
b11 %
b100 &
b100 #
b0 "
1!
#158500
0!
#158750
b0 %
b100110 &
b110 #
b100 "
1!
#159000
0!
#159250
b1 %
b10 &
b0 #
b10 "
1!
#159500
0!
#159750
b10 %
b0 &
b10 #
b101 "
1!
#160000
0!
#160250
b11 %
b1 &
b11 #
b10 "
1!
#160500
0!
#160750
b0 %
b10100 &
b100 #
1!
#161000
0!
#161250
b1 %
b11 &
b11 #
b1 "
1!
#161500
0!
#161750
b10 %
b0 &
b0 #
b11 "
1!
#162000
0!
#162250
b11 %
b11 &
b1 #
b10 "
1!
#162500
0!
#162750
b0 %
b111011 &
b11 #
b111 "
1!
#163000
0!
#163250
b1 %
b101 &
b0 #
b101 "
1!
#163500
0!
#163750
b10 %
b111 #
1!
#164000
0!
#164250
b11 %
b0 &
b11 #
b11 "
1!
#164500
0!
#164750
b0 %
b101 &
b101 #
b0 "
1!
#165000
0!
#165250
b1 %
b110 &
b100 #
b10 "
1!
#165500
0!
#165750
b10 %
b110 #
b111 "
1!
#166000
0!
#166250
b11 %
b11 &
b1 #
b10 "
1!
#166500
0!
#166750
b0 %
b100110 &
b110 #
b100 "
1!
#167000
0!
#167250
b1 %
b10 &
b0 #
b10 "
1!
#167500
0!
#167750
b10 %
b100 &
b100 #
b110 "
1!
#168000
0!
#168250
b11 %
b10 &
b11 #
b1 "
1!
#168500
0!
#168750
b0 %
b100100 &
b100 #
b100 "
1!
#169000
0!
#169250
b1 %
b111 &
b1 #
b111 "
1!
#169500
0!
#169750
b10 %
b1 &
b101 #
b11 "
1!
#170000
0!
#170250
b11 %
b110 &
b111 #
b1 "
1!
#170500
0!
#170750
b0 %
b111000 &
b0 #
b111 "
1!
#171000
0!
#171250
b1 %
b111 &
b110 #
b11 "
1!
#171500
0!
#171750
b10 %
b10 &
b10 #
b10 "
1!
#172000
0!
#172250
b11 %
b110 &
b111 #
b1 "
1!
#172500
0!
#172750
b0 %
b110001 &
b1 #
b110 "
1!
#173000
0!
#173250
b1 %
b101 &
b101 #
b101 "
1!
#173500
0!
#173750
b10 %
b0 &
b0 #
b100 "
1!
#174000
0!
#174250
b11 %
b110 &
b10 #
1!
#174500
0!
#174750
b0 %
b101111 &
b111 #
b101 "
1!
#175000
0!
#175250
b1 %
b111 &
b110 #
b11 "
1!
#175500
0!
#175750
b10 %
b100 &
b101 "
1!
#176000
0!
#176250
b11 %
b100 #
b0 "
1!
#176500
0!
#176750
b0 %
b110 &
b110 #
1!
#177000
0!
#177250
b1 %
b10 &
b0 #
b10 "
1!
#177500
0!
#177750
b10 %
b100 &
b110 #
b101 "
1!
#178000
0!
#178250
b11 %
b101 &
b11 #
b110 "
1!
#178500
0!
#178750
b0 %
b11011 &
b11 "
1!
#179000
0!
#179250
b1 %
b111 &
b111 #
b111 "
1!
#179500
0!
#179750
b10 %
b0 &
b10 #
b100 "
1!
#180000
0!
#180250
b11 %
b10 &
b100 #
b110 "
1!
#180500
0!
#180750
b0 %
b11011 &
b11 #
b11 "
1!
#181000
0!
#181250
b1 %
b100 &
b100 #
b100 "
1!
#181500
0!
#181750
b10 %
b1 &
b1 #
b101 "
1!
#182000
0!
#182250
b11 %
b100 &
1!
#182500
0!
#182750
b0 %
b1000 &
b0 #
b1 "
1!
#183000
0!
#183250
b1 %
b110 &
b100 #
b110 "
1!
#183500
0!
#183750
b10 %
b0 &
b0 #
b111 "
1!
#184000
0!
#184250
b11 %
b101 &
b110 #
b11 "
1!
#184500
0!
#184750
b0 %
b100000 &
b0 #
b100 "
1!
#185000
0!
#185250
b1 %
b0 &
b0 "
1!
#185500
0!
#185750
b10 %
b11 "
1!
#186000
0!
#186250
b11 %
b10 &
b11 #
b1 "
1!
#186500
0!
#186750
b0 %
b111 &
b111 #
b0 "
1!
#187000
0!
#187250
b1 %
b10 #
b111 "
1!
#187500
0!
#187750
b10 %
b0 &
b0 #
b101 "
1!
#188000
0!
#188250
b11 %
b10 &
b1 #
b11 "
1!
#188500
0!
#188750
b0 %
b10100 &
b100 #
b10 "
1!
#189000
0!
#189250
b1 %
b101 &
b101 #
b101 "
1!
#189500
0!
#189750
b10 %
b0 &
b100 #
b0 "
1!
#190000
0!
#190250
b11 %
b100 &
b0 #
b100 "
1!
#190500
0!
#190750
b0 %
b11011 &
b11 #
b11 "
1!
#191000
0!
#191250
b1 %
b101 &
b100 #
b101 "
1!
#191500
0!
#191750
b10 %
b0 &
b111 #
b0 "
1!
#192000
0!
#192250
b11 %
b100 &
b11 #
b111 "
1!
#192500
0!
#192750
b0 %
b11000 &
b0 #
b11 "
1!
#193000
0!
#193250
b1 %
b11 &
b1 #
b10 "
1!
#193500
0!
#193750
b10 %
b10 &
b10 #
b111 "
1!
#194000
0!
#194250
b11 %
b1 &
b111 #
b110 "
1!
#194500
0!
#194750
b0 %
b100011 &
b11 #
b100 "
1!
#195000
0!
#195250
b1 %
b101 &
b101 #
b0 "
1!
#195500
0!
#195750
b10 %
b0 &
b10 #
b101 "
1!
#196000
0!
#196250
b11 %
b10 &
b0 "
1!
#196500
0!
#196750
b0 %
b0 &
b0 #
1!
#197000
0!
#197250
b1 %
b111 &
b100 #
b11 "
1!
#197500
0!
#197750
b10 %
b0 &
b10 #
b101 "
1!
#198000
0!
#198250
b11 %
b10 &
b100 #
b110 "
1!
#198500
0!
#198750
b0 %
b11000 &
b0 #
b11 "
1!
#199000
0!
#199250
b1 %
b111 &
b111 #
b0 "
1!
#199500
0!
#199750
b10 %
b0 &
b101 #
1!
#200000
0!
#200250
b11 %
b10 &
b11 #
b1 "
1!
#200500
0!
#200750
b0 %
b11101 &
b101 #
b11 "
1!
#201000
0!
#201250
b1 %
b11 &
b11 #
b0 "
1!
#201500
0!
#201750
b10 %
b0 &
b0 #
b111 "
1!
#202000
0!
#202250
b11 %
b101 &
b101 #
b0 "
1!
#202500
0!
#202750
b0 %
b110001 &
b1 #
b110 "
1!
#203000
0!
#203250
b1 %
b101 &
b101 #
b1 "
1!
#203500
0!
#203750
b10 %
b11 &
b11 #
b111 "
1!
#204000
0!
#204250
b11 %
b101 &
b110 "
1!
#204500
0!
#204750
b0 %
b1 &
b1 #
b0 "
1!
#205000
0!
#205250
b1 %
b101 &
b101 #
1!
#205500
0!
#205750
b10 %
b0 &
b100 #
b11 "
1!
#206000
0!
#206250
b11 %
b10 &
b110 #
b100 "
1!
#206500
0!
#206750
b0 %
b110111 &
b111 #
b110 "
1!
#207000
0!
#207250
b1 %
b11 &
b0 #
b11 "
1!
#207500
0!
#207750
b10 %
b10 &
b111 #
b10 "
1!
#208000
0!
#208250
b11 %
b101 "
1!
#208500
0!
#208750
b0 %
b101101 &
b101 #
1!
#209000
0!
#209250
b1 %
b110 &
b110 #
b0 "
1!
#209500
0!
#209750
b10 %
b0 &
b0 #
b100 "
1!
#210000
0!
#210250
b11 %
b101 &
b100 #
b1 "
1!
#210500
0!
#210750
b0 %
b100111 &
b111 #
b100 "
1!
#211000
0!
#211250
b1 %
b111 &
b1 #
b110 "
1!
#211500
0!
#211750
b10 %
b10 &
b110 #
b10 "
1!
#212000
0!
#212250
b11 %
b111 &
b10 #
b101 "
1!
#212500
0!
#212750
b0 %
b10 &
b0 "
1!
#213000
0!
#213250
b1 %
b11 &
b11 #
b10 "
1!
#213500
0!
#213750
b10 %
b10 &
1!
#214000
0!
#214250
b11 %
b1 &
b10 #
b11 "
1!
#214500
0!
#214750
b0 %
b100001 &
b1 #
b100 "
1!
#215000
0!
#215250
b1 %
b111 &
b110 "
1!
#215500
0!
#215750
b10 %
b11 &
b111 #
b11 "
1!
#216000
0!
#216250
b11 %
b1 &
b0 #
b1 "
1!
#216500
0!
#216750
b0 %
b1110 &
b110 #
1!
#217000
0!
#217250
b1 %
b101 &
b1 #
b100 "
1!
#217500
0!
#217750
b10 %
b1 &
b111 #
b1 "
1!
#218000
0!
#218250
b11 %
b111 &
b11 #
b100 "
1!
#218500
0!
#218750
b0 %
b11001 &
b1 #
b11 "
1!
#219000
0!
#219250
b1 %
b111 &
b111 #
b101 "
1!
#219500
0!
#219750
b10 %
b0 &
b110 #
b1 "
1!
#220000
0!
#220250
b11 %
b11 &
b100 #
b111 "
1!
#220500
0!
#220750
b0 %
b10100 &
b10 "
1!
#221000
0!
#221250
b1 %
b111 &
b11 "
1!
#221500
0!
#221750
b10 %
b10 &
b10 #
b111 "
1!
#222000
0!
#222250
b11 %
b1 &
b11 "
1!
#222500
0!
#222750
b0 %
b110 &
b110 #
b0 "
1!
#223000
0!
#223250
b1 %
b111 &
b11 #
b100 "
1!
#223500
0!
#223750
b10 %
b10 &
b10 #
b10 "
1!
#224000
0!
#224250
b11 %
b111 &
b0 #
b111 "
1!
#224500
0!
#224750
b0 %
b111000 &
1!
#225000
0!
